<svg xmlns="http://www.w3.org/2000/svg" width="38.089" height="60.688" viewBox="0 0 38.089 60.688">
  <g id="Grupo_3" data-name="Grupo 3" transform="translate(2130.063 -285.376) rotate(90)">
    <rect id="Retângulo_2" data-name="Retângulo 2" width="41.571" height="12.296" rx="6.148" transform="translate(293.762 2092.346) rotate(43)" fill="#fff"/>
    <rect id="Retângulo_3" data-name="Retângulo 3" width="41.571" height="12.296" rx="6.148" transform="translate(346.064 2100.667) rotate(135)" fill="#fff"/>
  </g>
</svg>
