<svg xmlns="http://www.w3.org/2000/svg" width="21.774" height="25" viewBox="0 0 21.774 25">
  <path id="Polígono_3" data-name="Polígono 3" d="M9.9,4.532a3,3,0,0,1,5.2,0L22.42,17.281a3,3,0,0,1-2.6,4.494H5.181a3,3,0,0,1-2.6-4.494Z" transform="translate(0 25) rotate(-90)" fill="#1a2361"/>
</svg>
