<svg xmlns="http://www.w3.org/2000/svg" width="32.544" height="69.309" viewBox="0 0 32.544 69.309">
  <path id="União_20" data-name="União 20" d="M36.28,34.154a3.987,3.987,0,0,1-2.863-.877L3.109,8.734A4,4,0,0,1,8.143,2.517L36.28,25.3,64.418,2.517a4,4,0,1,1,5.035,6.217L39.143,33.278a3.983,3.983,0,0,1-2.515.892Q36.454,34.169,36.28,34.154Z" transform="translate(-1.625 70.935) rotate(-90)" fill="#1de8fc"/>
</svg>
