<svg xmlns="http://www.w3.org/2000/svg" width="32" height="78" viewBox="0 0 32 78">
  <text id="_" data-name="?" transform="translate(0 57)" fill="#62f3ff" font-size="57" font-family="AvenirNext-Bold, Avenir Next" font-weight="700"><tspan x="0" y="0">?</tspan></text>
</svg>
